// Jest Snapshot v1, https://goo.gl/fbAQLP

exports[`TodoItem.vue renders correctly 1`] = `
<div
  class="bg-light p-3 my-1 w-100"
>
  <div
    class="custom-control custom-checkbox"
  >
    <input
      class="custom-control-input"
      id="todo-label-1"
      type="checkbox"
    />
     
    <label
      class="custom-control-label"
      for="todo-label-1"
    >
      this is a todo item
    </label>
  </div>
</div>
`;
